27

37 2
9
35 0
4 1
14 1
14 1
28 0
8 0
33 1
18 1
20 1
44 4

33 23
14
8 7
25 21
28 13
16 3
23 2
1 19
10 7
3 3
28 10
0 22
21 7
6 11
23 16
0 12
33 1

34 24
1
12 16
30 9

5 49
18
0 32
2 27
3 19
3 3
4 47
1 41
0 44
0 42
0 21
2 10
1 26
2 17
0 8
1 22
1 0
1 16
4 26
3 16
46 4

38 21
6
33 1
13 19
16 8
29 2
27 18
22 18
18 9

21 7
7
1 3
3 1
2 0
17 2
8 3
17 4
8 4
36 1

45 50
17
27 4
42 9
34 42
14 8
1 39
32 29
22 31
5 49
13 47
10 22
7 35
22 1
21 42
27 26
27 29
12 6
20 37
2 10

37 4
5
33 3
24 1
18 3
3 1
5 0
42 8

40 12
8
12 7
19 2
5 5
5 4
37 5
36 1
9 4
38 2
48 7

36 41
19
28 9
6 38
1 28
30 38
15 1
22 15
14 35
25 22
4 19
2 21
2 23
30 0
3 3
21 15
27 15
35 35
23 35
23 9
26 32
22 3

6 25
9
3 20
3 10
4 7
0 7
2 15
1 23
1 13
2 12
2 24
40 6

43 17
20
31 0
16 0
9 7
4 4
2 4
2 6
35 9
2 3
9 6
17 1
0 11
1 16
37 3
11 14
20 7
21 3
25 3
10 8
42 9
20 8
9 2

3 18
7
0 10
0 17
2 0
1 3
2 10
1 10
1 0
10 4

43 36
14
20 29
22 10
20 27
8 20
41 14
32 16
12 15
18 16
11 9
14 16
16 28
16 27
11 29
34 16
26 3

9 6
17
3 3
2 1
2 4
2 2
5 5
3 3
5 3
0 3
6 5
0 3
7 0
8 0
1 2
6 2
2 3
6 1
4 2
31 9

43 7
6
5 3
21 6
9 5
33 2
36 0
0 2
16 7

40 41
15
0 33
21 30
20 3
35 0
26 14
32 11
35 25
7 2
23 25
13 3
27 17
39 34
9 1
15 31
10 39
32 3

12 31
5
0 10
11 2
0 16
5 21
6 26
20 4

21 11
18
14 4
8 5
13 2
15 3
7 10
12 1
20 6
7 0
14 5
19 0
18 1
20 3
19 3
7 5
7 0
15 3
18 10
8 3
44 5

28 26
12
9 11
20 5
16 1
8 0
22 14
2 17
0 3
0 21
27 18
24 4
0 17
22 0
26 7

21 20
6
11 11
16 8
16 17
7 8
8 10
12 12
49 6

41 10
17
28 3
9 1
5 4
19 5
29 4
24 4
21 5
9 1
39 8
16 9
26 8
3 1
17 2
2 7
28 7
14 8
20 5
39 6

48 49
4
32 37
46 7
11 35
36 40
19 7

6 37
8
1 26
5 14
5 32
3 27
1 25
3 14
3 36
5 21
4 5

27 37
2
5 3
9 28
2 10

47 43
20
41 8
45 40
19 28
13 10
16 11
27 3
42 23
25 10
44 10
30 25
46 29
31 10
0 28
5 28
16 38
27 10
0 18
46 10
14 11
7 39
35 3

40 37
12
23 21
17 29
18 31
11 6
32 34
28 36
4 18
20 18
38 29
8 28
11 22
20 2
5 4
