20

31 7
15
26 0
27 6
30 1
19 1
17 4
22 4
21 4
3 1
29 5
14 6
9 0
1 1
18 5
10 1
18 3
63 27

89 24
34
86 19
33 9
39 3
53 15
5 5
58 3
34 21
17 18
3 14
57 17
20 21
47 18
40 3
0 5
54 13
88 18
20 13
72 9
21 4
53 23
56 20
3 2
56 2
75 6
79 5
48 12
76 20
74 17
12 9
8 3
77 19
21 17
39 15
8 12
14 39

66 52
2
40 21
42 40
7 16

22 61
38
1 39
12 13
8 22
0 50
0 29
3 43
13 6
21 41
5 12
19 19
12 12
21 44
9 35
6 27
19 4
17 50
12 49
12 41
14 27
5 35
3 34
19 25
21 15
4 16
8 51
16 47
21 56
17 14
20 55
14 11
5 58
1 37
9 23
19 33
19 7
10 31
18 22
15 31
52 33

72 52
24
9 12
68 2
63 25
20 48
44 48
29 38
5 43
33 24
57 32
19 12
24 13
42 30
17 16
57 36
15 51
40 40
54 40
67 47
64 45
56 22
19 21
12 22
36 33
45 49
40 49

80 45
32
9 4
7 13
37 22
6 26
8 43
23 34
73 5
49 12
25 23
24 15
67 31
42 37
79 29
49 34
54 11
9 13
28 36
75 2
75 20
66 37
79 10
78 28
28 22
69 11
23 24
2 39
34 8
72 6
61 38
36 15
40 43
59 5
41 32

12 53
4
11 34
4 43
5 36
3 13
22 10

25 41
11
9 40
16 2
16 4
4 13
1 16
20 21
23 21
11 38
8 11
8 38
11 39
29 43

34 41
41
12 3
3 4
17 23
28 21
29 15
19 11
26 6
5 17
20 40
21 19
25 16
20 13
8 37
24 6
25 6
11 3
9 17
19 38
20 22
20 14
22 2
0 26
17 14
13 6
13 28
14 36
27 18
3 1
25 14
23 29
33 33
30 10
25 32
17 31
28 11
30 16
3 32
25 1
31 10
28 30
9 29
71 18

68 93
7
16 72
1 12
58 69
16 78
41 50
27 13
47 50
30 100

73 90
35
15 3
41 63
44 65
13 1
66 75
71 6
41 49
42 37
62 26
51 57
25 0
66 6
14 62
64 65
14 47
57 13
52 41
45 46
68 44
52 51
22 46
51 28
34 29
69 59
45 10
51 29
25 27
25 16
20 0
44 66
20 37
14 52
16 87
3 85
33 62
38 97

86 97
28
21 94
33 56
76 22
24 95
63 18
15 9
76 89
11 85
16 9
75 89
25 30
63 44
55 2
53 55
36 92
26 84
53 1
59 77
12 13
61 23
65 68
17 71
48 86
50 67
25 45
44 10
72 44
9 41
62 51

63 95
3
14 4
24 84
55 93
73 18

86 22
2
36 8
75 1
17 22

7 7
46
5 5
3 1
6 6
6 3
5 6
4 5
0 4
1 5
0 2
1 4
4 1
2 1
5 4
6 1
3 1
4 1
4 5
5 2
2 2
2 4
6 2
2 1
5 4
2 4
3 0
1 4
0 5
3 4
0 2
2 6
6 0
0 3
1 2
3 2
1 0
1 4
3 1
1 1
5 3
1 3
4 3
1 6
6 4
3 5
1 0
1 1
3 1

38 14
48
22 6
17 6
25 8
28 2
6 6
3 5
8 12
14 11
35 7
31 11
10 6
20 13
34 12
35 2
16 6
14 6
25 10
33 11
10 7
1 4
36 6
15 3
23 13
29 8
22 13
2 5
1 7
14 6
22 1
23 6
8 8
2 3
27 2
32 3
17 0
2 5
34 9
15 5
5 10
22 10
28 0
8 7
21 13
36 10
30 0
37 6
20 1
29 9
12 23

90 99
44
80 66
18 11
28 37
30 4
24 96
38 14
3 84
35 0
36 43
22 4
1 27
76 73
5 61
3 25
11 3
43 91
41 42
27 0
29 11
68 14
39 76
51 15
41 9
10 34
71 74
9 88
60 60
80 41
56 65
17 62
88 15
20 11
77 50
80 39
9 46
50 44
48 20
65 46
68 66
20 62
62 49
24 95
46 61
79 75
50 84

60 85
42
16 68
44 60
9 6
51 31
11 50
3 13
31 78
29 48
48 83
28 29
7 27
3 48
20 64
4 65
55 18
14 36
32 61
57 38
4 64
56 73
15 68
27 15
39 20
17 78
30 38
12 63
42 80
35 51
40 14
15 52
8 54
3 29
47 76
15 65
16 56
24 36
29 33
25 54
38 74
44 48
57 49
56 49
49 27

56 45
10
6 17
49 32
46 11
5 40
15 8
15 16
33 36
16 30
3 27
45 2
39 33

6 58
20
5 38
1 10
2 25
3 45
0 57
5 7
4 15
1 49
0 52
1 17
2 3
1 38
1 25
4 8
4 14
5 19
5 39
3 6
2 48
2 26
92 52
